1 2 2
1 1 1
1 10 20
9999 1000 262
9999 1001 262
9999 9999 92
1 999999 525
100 200 125
199 201 120
101 199 125
900 1000 174
555 555 31
35 15 112
18 22 21
1000 2000 182
6000 8000 262
43 41 110
3 3 8
5 10 20
15 30 112
45 90 116
500000 999999 525
500001 999999 525
999999 999999 259
1111 2222 182
2222 4444 238
4444 8888 262
8888 16666 276
16666 32222 308
32222 64444 340
64444 128888 354
128888 256666 443
256666 512222 470
512222 999999 525
999999 512222 525
512222 256666 470
256666 128888 443
128888 64444 354
64444 32222 340
32222 16666 308
16666 8888 276
8888 4444 262
4444 2222 238
2222 1111 182
2 1 2
3 1 8
999999 333333 525
450000 900000 525
25 27 112
25 35 112
228847 730226 509
63357 944212 525
76457 964588 525
189642 596369 470
215225 671579 509
19833 897541 525
281876 818424 509
371192 891329 525
339935 542499 470
111711 800939 509
256955 815844 509
474054 634367 509
454005 611240 470
490353 865671 525
318284 590048 470
390396 927874 525
164106 888076 525
324431 832359 509
20659 856019 525
404849 547724 470
115556 736772 509
372680 671408 509
324060 784494 509
152943 837783 509
174267 520042 470
163437 745787 509
475124 676965 509
328365 544226 470
349180 854333 525
13735 799729 509
131145 713745 509
328487 723451 509
470613 694434 509
433825 663867 509
289707 862835 525
143022 943350 525
402136 640274 509
335244 892480 525
262509 975225 525
415276 561918 470
324975 665186 509
1163 931535 525
436312 647573 509
151209 841865 525
418713 842265 525
460193 960980 525
47230 822462 509
105019 779425 509
267563 533124 470
176389 688277 509
401493 944435 525
429389 745780 509
292516 964993 525
294542 848778 525
441237 606738 470
91226 518350 470
226915 583934 470
25962 634720 509
255716 557291 470
82886 869567 525
182668 742170 509
190880 933091 525
245554 710492 509
191386 644716 509
325044 789749 509
405887 513174 470
45928 556365 470
326863 719995 509
280467 856543 525
81008 605321 470
352201 905960 525
136162 522518 470
181978 527254 470
408109 569671 470
6557 871383 525
36299 603343 470
204341 733593 509
476848 966827 525
23742 848043 525
197059 518307 470
131755 776761 509
191418 573170 470
127721 598211 470
454743 946752 525
320997 622822 470
251005 975235 525
77511 904791 525
255033 821282 509
71991 636713 509
401434 944818 525
306135 651830 509
233642 806715 509
117687 993311 525
77095 585348 470
462185 691805 509
102392 589173 470
152992 605514 470
27894 720566 509
192900 883420 525
282724 539822 470
9051 769307 509
54543 546242 470
46576 933487 525
237865 654166 509
70881 595317 470
467978 737769 509
394202 966744 525
278778 911190 525
269491 671568 509
231051 889622 525
270172 850926 525
210180 830572 509
376604 599351 470
245241 960744 525
235379 947529 525
167431 904490 525
189214 997966 525
42304 656839 509
4837 792045 509
418349 799055 509
126472 501109 449
383298 821824 509
353002 828150 509
324266 795392 509
327588 691882 509
447855 893475 525
139213 732908 509
39995 987544 525
315521 753569 509
445373 546554 470
307350 876523 525
9502 680495 509
16644 841098 525
298200 894069 525
55578 682446 509
67978 504888 449
331559 679739 509
157416 527114 470
276568 736232 509
88537 673010 509
283071 918814 525
325816 754561 509
402748 716021 509
173639 741347 509
399681 569879 470
77755 658549 509
134871 504930 449
103415 989419 525
101362 834160 509
3 3 8
