1 10 20
999990 999999 259
171369 864915 525
109707 175863 383
446584 692031 509
924015 518055 525
785110 680485 504
212052 601167 470
996510 888674 507
920268 432206 525
545529 577824 452
407685 667538 509
964485 131505 525
692309 940322 525
489349 804593 509
568080 438529 470
346023 982035 525
877044 185545 525
381651 240572 441
916657 827384 525
439403 227559 449
543875 992751 525
202917 793553 509
14528 405029 443
24106 523096 470
483245 692274 509
858647 181248 525
26004 781923 509
443116 484304 444
445836 569314 470
95051 562204 470
171874 432158 449
609636 468702 470
752147 458751 509
777757 326763 509
928236 292646 525
243684 97066 443
411296 756519 509
278748 724549 509
853680 584820 525
82791 48027 351
963959 555921 525
691335 319287 509
830830 327164 509
645668 125961 509
936369 296998 525
262342 640313 509
33355 24439 308
54951 257241 443
64501 924516 525
633116 436803 509
403180 334327 441
290616 374971 441
546567 377329 470
256344 462095 449
772021 539863 509
149725 111970 375
304183 94989 443
996835 231621 525
840937 350514 525
109226 870358 525
938746 599562 525
722342 511972 509
184854 164755 365
829580 542540 509
360943 449862 449
903162 48708 525
138166 89331 354
630501 97104 509
244699 262075 363
649395 439757 509
134163 518268 470
470003 898240 525
738052 963922 525
333010 318223 384
662412 850821 525
245156 73275 443
727771 391822 509
345256 806925 509
481478 646212 509
493021 115284 449
322184 449873 449
36974 555223 470
239467 681050 509
450815 895875 525
529390 641704 509
320648 999308 525
600370 913839 525
592971 637539 509
613239 144429 470
551749 743332 509
785844 643337 504
568195 25030 470
443917 722720 509
209568 43499 383
927087 254323 525
765500 835525 468
446706 476379 444
362281 844185 525
250462 961410 525
468833 105292 449
687435 580065 509
568671 156667 470
968392 471617 525
450171 594929 470
535861 581872 452
723095 222946 509
202341 81853 383
764241 348801 509
430143 779701 509
450951 132504 449
960902 786066 525
127885 368569 443
920948 480991 525
153747 154650 352
141529 355144 443
384614 680608 509
27736 617820 470
343958 956390 525
829975 540594 509
614087 260142 470
49129 401999 443
229003 51323 386
54953 606329 470
430144 923926 525
699599 588978 509
132563 810619 509
647654 335800 509
91630 752805 509
184052 793324 509
339674 752903 509
221821 868369 525
766115 371452 509
946866 365328 525
800480 77086 509
48126 987452 525
252925 681464 509
611386 608216 359
45565 195578 383
630594 90297 509
129686 263642 443
136162 213917 383
807063 21308 509
709545 79362 509
599986 382028 470
938136 500961 525
225059 17484 386
475684 772096 509
424871 817246 509
317834 333899 384
123226 525062 470
495963 708961 509
