1 1 1
65 739918 509
95426 851133 525
455397 787561 509
121046 909948 525
31123 442684 449
656997 787488 504
139144 45675 354
104971 60021 351
558623 784254 509
329943 625627 470
457095 184851 449
769879 684254 504
25796 499620 449
120812 737749 509
606733 646194 509
153817 207422 383
472772 964251 525
508872 129842 449
891451 317345 525
440941 890286 525
594665 15120 470
445198 852166 525
654699 890494 525
605742 932595 525
158831 862779 525
469492 617411 470
208503 148167 383
658876 814514 504
311055 53020 443
442461 970714 525
476899 715599 509
933900 715480 525
961230 627478 525
837337 752294 468
117059 123155 336
357701 347831 379
759966 686372 504
649522 409080 509
761260 240319 509
578742 459277 470
355569 371490 410
476622 932335 525
615333 194012 470
855731 258058 525
855657 264012 525
560417 72514 470
284715 493736 449
423214 856808 525
939121 289954 525
297242 857510 525
988066 420045 525
46062 628177 509
251323 435648 449
272896 952756 525
738063 279453 509
764981 217806 509
827851 217969 509
946519 359785 525
994612 902237 507
264000 155359 443
47675 88106 351
868924 942087 507
324958 871922 525
693832 501984 509
840026 564479 525
107357 912014 525
980833 472273 525
363242 158549 443
998592 676553 525
521470 851846 525
101249 215534 383
200348 311742 443
388780 623688 470
943214 919912 507
461282 395132 449
391636 258940 441
982324 474787 525
414219 22442 449
161333 339578 443
289795 328415 384
602554 811488 509
69446 830152 509
222501 779960 509
45351 540763 470
935427 13822 525
367909 467918 449
736640 706599 424
67896 928916 525
986486 798963 525
799440 967870 525
810798 37220 509
880698 994693 507
258082 578430 470
427570 187494 449
923975 529026 525
208986 95500 383
137384 14094 354
852948 566932 525
895203 911876 476
630121 756606 504
547150 978506 525
523277 842610 525
949624 340074 525
70966 423284 449
953485 721726 525
860162 702566 525
805129 836881 450
355012 847035 525
993352 198727 525
337597 873557 525
317222 802994 509
176279 366979 443
734041 351775 509
177852 485313 449
957964 879444 507
391026 461210 449
591929 654662 509
375746 461512 449
977183 713686 525
883711 7215 525
360679 394484 436
597695 765868 509
639349 257466 509
858471 801924 525
855160 659569 525
151638 992119 525
585907 150559 470
479998 485023 413
230981 453684 449
805613 54652 509
232524 661585 509
234825 678708 509
540229 137444 470
155467 559497 470
25940 642514 509
66425 401057 443
377732 226514 443
404678 977978 525
982900 792786 525
286826 568093 470
870901 665118 525
163137 641046 509
375922 116941 443
705841 190968 509
221917 366653 443
626930 995105 525
944176 393418 525
964336 709990 525
262250 536408 470
943410 929911 507
26443 396722 443
736631 512211 509
23513 161923 383
930117 535463 525
323672 892309 525
224924 954383 525
46806 197872 383
56283 786805 509
969471 196573 525
583598 401724 470
159775 261984 443
196137 243945 443
180137 689697 509
567710 823909 509
770933 521862 509
277827 525672 470
768725 351327 509
455811 771794 509
21474 575748 470
524606 233958 470
181827 946663 525
871800 429658 525
150935 580345 470
816455 847446 525
43143 797004 509
540911 79228 470
956830 992412 458
108408 817911 509
353540 422013 449
803305 323456 509
204898 36418 383
42974 390668 443
197911 65499 383
324652 114141 443
489660 624911 470
202604 143193 383
24726 720470 509
641712 889325 525
217121 575100 470
136679 497391 449
346485 564837 470
216384 37722 386
480855 37542 449
395500 699027 509
34786 219400 386
977275 774907 525
479929 316598 449
60952 673140 509
