1 10 20
100 200 125
201 210 89
900 1000 174
1 1 1
3 1 8
1 1000 179
175 240 128
166 473 144
274 129 128
20 100 119
1 100000 351
120 130 122
1 2 2
50 40 110
123 50 119
2314 72952 340
1 50 112
294 827 171
200 300 128
982 1000 143
123 321 131
5802 150231 375
50000 75000 340
153 192304 383
1274 9375 262
3952 9853 262
72847 92748 351
1 45 112
142 845 171
845 142 171
28475 57482 340
3847 8473 262
294 958 179
72424 92875 351
100 209 125
9023 6810 257
100000 200000 383
48 84 116
18372 68204 340
71839 98182 351
1 5 8
10 10 7
48724 82744 351
38572 42 324
42 42 9
2842 9817 262
28427 41835 324
1 1000 179
381 984 179
572 284 144
719 987 179
4718 3794 215
34728 38249 324
1744 3924 238
18374 38521 324
3847 294 238
381 4934 238
4824 4294 215
285 863 171
92 68 116
8 2 17
3482 4294 238
424 482 129
592 482 142
39 48 110
2944 4863 238
394 294 144
1937 47892 324
492929 102952 449
100000 150000 375
381 3918 238
4829 204 238
39284 49829 314
224 294 128
39795 2941 324
4892 329 238
498 38 144
32 1942 182
4927 29 238
6193 378 262
825 2842 209
4856 382 238
4985 389621 443
482 13 144
4592 23 238
4234 496726 449
294 12 128
384825 273049 441
139 3763 238
1958 12 182
19472 28496 308
135956 123456 344
294 28524 308
248 18442 279
12 100 119
3758 294 238
28472 37181 324
100 2852 209
1349 19385 279
1284 385 182
12 4859 238
1845 10485 262
183 24 125
1734 12345 268
28571 582929 470
1837 24 182
194 29 125
934 82750 351
