...................
----------------------------------------------------------------------
Ran 19 tests in 0.521s

OK
Name             Stmts   Miss Branch BrPart  Cover   Missing
------------------------------------------------------------
Collatz.py          35      1     20      2    95%   39, 38->39, 57->59
TestCollatz.py      83      0      0      0   100%
------------------------------------------------------------
TOTAL              118      1     20      2    98%
